# Blender v2.76 (sub 0) OBJ File: ''
# www.blender.org
mtllib wing.mtl
o BezierCurve_Mesh
v -0.522005 0.000000 0.000000
v -0.480060 -0.175260 0.000000
v -0.386001 -0.296320 0.000000
v -0.248771 -0.369879 0.000000
v -0.077314 -0.402639 0.000000
v 0.119426 -0.401301 0.000000
v 0.332506 -0.372563 0.000000
v 0.552981 -0.323128 0.000000
v 0.771909 -0.259695 0.000000
v 0.980346 -0.188966 0.000000
v 1.169348 -0.117639 0.000000
v 1.329970 -0.052417 0.000000
v 1.447665 -0.001483 0.000000
v -0.025697 -0.124805 -6.574872
v -0.006734 -0.204042 -6.574872
v 0.035791 -0.258774 -6.574872
v 0.097834 -0.292031 -6.574872
v 0.175351 -0.306842 -6.574872
v 0.264299 -0.306237 -6.574872
v 0.360635 -0.293244 -6.574872
v 0.460314 -0.270894 -6.574872
v 0.559293 -0.242216 -6.574872
v 0.653529 -0.210238 -6.574872
v 0.738978 -0.177991 -6.574872
v 0.811597 -0.148503 -6.574872
v 0.864808 -0.125476 -6.574872
vn -0.218800 0.975700 0.010800
vn -0.278300 0.960400 0.011600
vn 0.970200 0.232200 0.068800
vn -0.321300 0.946900 0.012900
vn 0.788500 0.612600 0.054100
vn -0.353000 0.935500 0.014500
vn 0.472100 0.880800 0.035300
vn -0.376200 0.926400 0.016100
vn 0.187600 0.982000 0.021500
vn -0.397100 0.917600 0.017900
vn -0.006800 0.999900 0.014300
vn -0.000800 -0.999800 0.018900
vn -0.133600 0.991000 0.011400
vn -0.000000 0.000000 1.000000
vn -0.000000 -0.000000 -1.000000
usemtl None
s off
f 7//1 8//1 21//1 20//1
f 8//2 9//2 22//2 21//2
f 1//3 2//3 15//3 14//3
f 9//4 10//4 23//4 22//4
f 2//5 3//5 16//5 15//5
f 10//6 11//6 24//6 23//6
f 3//7 4//7 17//7 16//7
f 11//8 12//8 25//8 24//8
f 4//9 5//9 18//9 17//9
f 12//10 13//10 26//10 25//10
f 5//11 6//11 19//11 18//11
f 13//12 1//12 14//12 26//12
f 6//13 7//13 20//13 19//13
f 14//14 15//14 16//14 17//14 18//14 19//14 20//14 21//14 22//14 23//14 24//14 25//14 26//14
f 1//15 13//15 12//15 11//15 10//15 9//15 8//15 7//15 6//15 5//15 4//15 3//15 2//15
